\relax 
\citation{impact,Crowston2012}
\citation{Crowston2012}
\citation{SadowskiSD08}
\citation{capra08,TullioS14}
\citation{archcomm}
\citation{gamalielsson2013sustainability,645}
\citation{ossslr}
\citation{Hata1}
\citation{fail1,fail2}
\citation{specissue}
\citation{ossslr}
\citation{icgseoss,ossslr}
\@writefile{toc}{\contentsline {section}{\numberline {1}Introduction}{2}}
\newlabel{intro}{{1}{2}}
\citation{505276,Wenger1998,2collab_262714}
\@writefile{toc}{\contentsline {subsection}{\numberline {1.1}Research Questions}{3}}
\citation{tsc:appendix}
\citation{Fredrickson:1986:amr}
\citation{miles}
\citation{LaiWC06,DiMaggio1983}
\citation{commflow}
\citation{jeppesen2011attitudes,kim2007msa}
\citation{homscheid:turnoverintention,LiTT12}
\citation{Nielsen95}
\citation{SiakasG02}
\citation{vgeriouKNOS16}
\@writefile{toc}{\contentsline {subsection}{\numberline {1.2}Motivations}{4}}
\citation{cl,rel6,rel2,rel3}
\citation{Jansen14}
\citation{cacmqualcomm}
\@writefile{toc}{\contentsline {subsection}{\numberline {1.3}Structure of The Article}{5}}
\@writefile{toc}{\contentsline {section}{\numberline {2}Background and Research Statement}{5}}
\newlabel{bg}{{2}{5}}
\citation{ossslr,cacmqualcomm}
\citation{jisaspecissue,PalombaTSZFO18}
\citation{Chatha2003}
\@writefile{toc}{\contentsline {subsection}{\numberline {2.1}Organisational Structures Explained}{6}}
\citation{sna,sna2}
\citation{NevoW05}
\citation{Mockus2002}
\citation{ossslr}
\citation{ossslr}
\citation{ossslr}
\@writefile{toc}{\contentsline {subsubsection}{\numberline {2.1.1}Organisational Types and Their Characteristics}{7}}
\citation{jeppesen2011attitudes,Fredrickson:1986:amr}
\citation{situated}
\citation{Cross2005}
\citation{ossslr}
\citation{ossslr}
\citation{Ruikar2009}
\citation{rel6}
\citation{ossslr}
\citation{ZichKRS08}
\citation{Cross2005}
\citation{ossslr}
\@writefile{lot}{\contentsline {table}{\numberline {1}{\ignorespaces Organisational structure types, an overview from previous work. The four types not identified by \textsc  {Yoshi }are omitted for the sake of space.}}{9}}
\newlabel{overview}{{1}{9}}
\citation{Prandy2000,Mislove2007,Ryynanen12}
\@writefile{lof}{\contentsline {figure}{\numberline {1}{\ignorespaces An overview of the nature of organisational and social characteristics behind communities - our tool predicts community design patterns by evaluating the trend of the perception curves for primary community type indicators. The figure also reports (right-hand side) the ``Comicon" event in correspondence to two identified types, from our example.}}{10}}
\newlabel{fuzzy}{{1}{10}}
\@writefile{toc}{\contentsline {subsubsection}{\numberline {2.1.2}A Methodology to Discover Organisational Patterns in Software Engineering}{10}}
\citation{titans}
\citation{titans}
\citation{ossslr,archcomm,specissue}
\citation{titans}
\citation{sna}
\citation{sna}
\citation{titans}
\citation{impact,Crowston2012}
\citation{GVK120821842,AfsarB15,Oreja-RodriguezY06}
\citation{Nielsen95}
\citation{gqm}
\citation{titans}
\@writefile{toc}{\contentsline {subsection}{\numberline {2.2}Organisational Structure Quality}{13}}
\@writefile{toc}{\contentsline {section}{\numberline {3}YOSHI: An Automatic Tool for Discovering Community Types}{13}}
\newlabel{theor}{{3}{13}}
\@writefile{lof}{\contentsline {figure}{\numberline {2}{\ignorespaces A decision-tree for organisational structures - dotted nodes identify types not currently implemented in \textsc  {Yoshi }.}}{14}}
\newlabel{tree}{{2}{14}}
\@writefile{toc}{\contentsline {subsection}{\numberline {3.1}The \textsc  {Yoshi }Approach to Open-Source Community Design Patterns Detection: General Overview}{14}}
\citation{specissue}
\citation{XiaoCK14}
\citation{ossslr}
\citation{manning1999fsn}
\citation{Molzberger86}
\@writefile{lof}{\contentsline {figure}{\numberline {3}{\ignorespaces A decision-tree for organisational structures - \textsc  {Yoshi }'s visit to identify FNs.}}{15}}
\newlabel{exampletree}{{3}{15}}
\citation{titans}
\citation{ossslr,NewGir04,newman03fast}
\citation{sna}
\@writefile{toc}{\contentsline {subsection}{\numberline {3.2}\textsc  {Yoshi }: Algorithmic Representation}{16}}
\newlabel{algoref}{{3.2}{16}}
\@writefile{loa}{\contentsline {algorithm}{\numberline {1}{\ignorespaces \textsc  {Yoshi }algorithm for community type detection using thresholds from previous work.}}{16}}
\newlabel{alto}{{1}{16}}
\citation{TraagKD13}
\citation{geodisp}
\citation{hofstede2010cultures}
\@writefile{toc}{\contentsline {subsubsection}{\numberline {3.2.1}Community Structure}{17}}
\newlabel{subsec:communityStructure}{{3.2.1}{17}}
\@writefile{toc}{\contentsline {subsubsection}{\numberline {3.2.2}Community Geodispersion}{17}}
\citation{titans}
\@writefile{lof}{\contentsline {figure}{\numberline {4}{\ignorespaces A geographical distribution map in \textsc  {Yoshi}.}}{18}}
\newlabel{geodisp}{{4}{18}}
\@writefile{toc}{\contentsline {subsubsection}{\numberline {3.2.3}Community Longevity}{18}}
\citation{casoalexandra22}
\@writefile{toc}{\contentsline {subsubsection}{\numberline {3.2.4}Community Engagement}{19}}
\citation{Crowston2012}
\citation{aletaref17}
\citation{ossslr}
\@writefile{toc}{\contentsline {subsubsection}{\numberline {3.2.5}Community Formality}{20}}
\citation{MoodySR,HungTrans,GirardoCyber}
\citation{MoodySR,HungTrans}
\citation{NooteboomCognitive}
\citation{edustudy}
\@writefile{toc}{\contentsline {subsubsection}{\numberline {3.2.6}Community Cohesion}{21}}
\citation{BCK98}
\@writefile{lof}{\contentsline {figure}{\numberline {5}{\ignorespaces \textsc  {Yoshi }high-level architecture.}}{22}}
\newlabel{yoshiarch}{{5}{22}}
\@writefile{toc}{\contentsline {subsection}{\numberline {3.3}\textsc  {Yoshi}---Architecture}{22}}
\citation{Novielli:Calefato:Lanubile,Jongeling2017}
\citation{Arnaoudova:et:al}
\@writefile{lot}{\contentsline {table}{\numberline {2}{\ignorespaces Characteristics of the Software Projects Considered in the Study, as extracted from GitHub on April 2017 - Domain Taxonomy tailored from literature.}}{23}}
\newlabel{tab:systems}{{2}{23}}
\newlabel{sec:approach}{{3.3}{23}}
\@writefile{toc}{\contentsline {section}{\numberline {4}Evaluation}{23}}
\newlabel{cs}{{4}{23}}
\@writefile{toc}{\contentsline {subsection}{\numberline {4.1}Study Design}{23}}
\newlabel{sec:accuracy}{{4.1}{23}}
\citation{FalessiSS17}
\citation{KalliamvakouGBS16}
\citation{borgesICSME}
\citation{borgesICSME}
\citation{munaiah2017curating}
\citation{tsc:appendix}
\citation{repcond}
\citation{repcond}
\citation{repcond}
\citation{repcond}
\citation{titans}
\citation{blogPost}
\citation{chelkowski2016inequalities,druskat2016proposal}
\citation{Cohen:1988}
\citation{NewGir04}
\citation{newman2006modularity}
\citation{newman2006modularity}
\citation{Conover:1998}
\citation{krippendorff04}
\citation{AntoineVL14}
\citation{tsc:appendix}
\citation{kraut1995coordination,elkins2003leadership}
\@writefile{toc}{\contentsline {subsection}{\numberline {4.2}Study Results}{27}}
\newlabel{sec:results}{{4.2}{27}}
\citation{repcond}
\citation{EggheR03,Tikhonov2016Communitylevel,KozdobaM15}
\@writefile{lot}{\contentsline {table}{\numberline {3}{\ignorespaces Community types inferred by \textsc  {Yoshi} for the considered software projects. As explained in Section 3, more community types can be associated to a single project.}}{28}}
\newlabel{tab:types}{{3}{28}}
\@writefile{toc}{\contentsline {subsubsection}{\numberline {4.2.1}Does \textsc  {Yoshi }correctly measure the community aspects characterising different software communities?}{28}}
\citation{hofstede2010cultures}
\@writefile{lof}{\contentsline {figure}{\numberline {6}{\ignorespaces A geodistribution map for Twitter Bootstrap, the representation condition holds.}}{29}}
\newlabel{geodisp2}{{6}{29}}
\@writefile{toc}{\contentsline {paragraph}{\textbf  {Geodispersion.}}{29}}
\@writefile{lof}{\contentsline {figure}{\numberline {7}{\ignorespaces A geodistribution map for Dotcloud.}}{30}}
\newlabel{geodisp1}{{7}{30}}
\@writefile{toc}{\contentsline {paragraph}{\textbf  {Engagement.}}{30}}
\citation{romano2006delta}
\@writefile{toc}{\contentsline {paragraph}{\textbf  {Formality.}}{31}}
\@writefile{toc}{\contentsline {paragraph}{Summary.}{31}}
\@writefile{toc}{\contentsline {subsubsection}{\numberline {4.2.2}Does \textsc  {Yoshi }provide a meaningful view of the community structure of a software system?}{31}}
\@writefile{lot}{\contentsline {table}{\numberline {4}{\ignorespaces Modularity Coefficients achieved by the Experimented Approaches - indexes refer to April 2017.}}{32}}
\newlabel{tab:rq2}{{4}{32}}
\citation{palomba2015mining,palomba2017scent,VasilescuPRBSDF15}
\citation{silva2016we}
\citation{Crowston}
\citation{Jansen}
\@writefile{toc}{\contentsline {section}{\numberline {5}Discussion and Further Insights}{34}}
\newlabel{discussion}{{5}{34}}
\citation{Hintze}
\citation{AntunesGSC95}
\@writefile{lof}{\contentsline {figure}{\numberline {8}{\ignorespaces Violin Plots reporting the repository health metrics for each community type inferred by \textsc  {Yoshi} }}{35}}
\newlabel{fig:rq4metrics}{{8}{35}}
\citation{zhu_organizing_2012}
\citation{Crowston}
\citation{titans}
\citation{wohlin}
\citation{ossslr}
\citation{titans}
\@writefile{toc}{\contentsline {section}{\numberline {6}Tool Limitations and Threats to Validity}{37}}
\newlabel{disc}{{6}{37}}
\@writefile{toc}{\contentsline {subsection}{\numberline {6.1}Tool Limitations}{37}}
\citation{titans}
\citation{Severance12h}
\citation{LaiWC06}
\citation{Prikladnicki12}
\citation{jisaspecissue,archcomm}
\citation{Lancichinetti2008}
\citation{Medus2005}
\citation{PentaT17}
\citation{specissue}
\citation{zimmermann2008overcoming}
\citation{specissue}
\@writefile{toc}{\contentsline {subsection}{\numberline {6.2}Industry vs. Open-Source, insights from \textsc  {Yoshi }}{39}}
\citation{ossslr}
\citation{Hugo:journal}
\@writefile{toc}{\contentsline {subsection}{\numberline {6.3}Threats to Validity}{40}}
\citation{Crowston,Jansen}
\citation{RePEc:wpa:wuwpio:0312005}
\citation{Grex:generations}
\citation{RePEc:wpa:wuwpio:0312005}
\citation{Tourani:saner2017}
\@writefile{toc}{\contentsline {section}{\numberline {7}Related Work}{42}}
\newlabel{rel}{{7}{42}}
\@writefile{toc}{\contentsline {subsection}{\numberline {7.1}Governance and Community Aspects in Open-Source}{42}}
\citation{coelho2017modern}
\citation{Prattico}
\citation{onoue2014software,onoue2016investigating}
\citation{steinmacher2015social,Mendez:et:al,FordSGP16,BalaliSASG18,VasilescuFS15}
\citation{Cheng:2003:JUE:965660.965670}
\citation{robles2011:floss_datamining}
\citation{MiningKeivanloo}
\citation{stojanovic2011alert}
\@writefile{toc}{\contentsline {subsection}{\numberline {7.2}Computer-Supported Cooperative Work in Open-Source}{44}}
\citation{repcond}
\citation{jisaspecissue,cacmqualcomm}
\@writefile{toc}{\contentsline {section}{\numberline {8}Conclusions and Future Work}{45}}
\newlabel{conc}{{8}{45}}
\@writefile{toc}{\contentsline {subsection}{\numberline {8.1}Lessons Learned}{45}}
\citation{Novielli:Calefato:Lanubile}
\citation{FerencHG14}
\citation{cacmqualcomm}
\citation{specissue,ossslr}
\bibstyle{spbasic}
\bibdata{yoshi}
\@writefile{toc}{\contentsline {subsection}{\numberline {8.2}Future Work and Outlook: Forming the Software Community Shepherd}{46}}
\bibcite{AfsarB15}{{1}{2015}{{Afsar and Badir}}{{}}}
\bibcite{2collab_262714}{{2}{2009}{{Ala-Mutka}}{{}}}
\bibcite{AntoineVL14}{{3}{2014}{{Antoine et~al.}}{{Antoine, Villaneau, and Lefeuvre}}}
\bibcite{AntunesGSC95}{{4}{1995}{{Antunes et~al.}}{{Antunes, Guimar{\~{a}}es, Segovia, and Carde{\~{n}}osa}}}
\bibcite{Arnaoudova:et:al}{{5}{2015}{{Arnaoudova et~al.}}{{Arnaoudova, Haiduc, Marcus, and Antoniol}}}
\bibcite{vgeriouKNOS16}{{6}{2016}{{Avgeriou et~al.}}{{Avgeriou, Kruchten, Nord, Ozkaya, and Seaman}}}
\bibcite{BalaliSASG18}{{7}{2018}{{Balali et~al.}}{{Balali, Steinmacher, Annamalai, Sarma, and Gerosa}}}
\bibcite{gqm}{{8}{1994}{{Basili et~al.}}{{Basili, Caldiera, and Rombach}}}
\bibcite{BCK98}{{9}{1998}{{Bass et~al.}}{{Bass, Clements, and Kazman}}}
\bibcite{rel6}{{10}{2009}{{Bird et~al.}}{{Bird, Nagappan, Gall, Murphy, and Devanbu}}}
\bibcite{borgesICSME}{{11}{2016}{{Borges et~al.}}{{Borges, Hora, and Valente}}}
\bibcite{fail2}{{12}{2003}{{Capiluppi et~al.}}{{Capiluppi, Lago, Morisio, and e~Informatica}}}
\bibcite{capra08}{{13}{2008}{{Capra et~al.}}{{Capra, Francalanci, and Merlo}}}
\bibcite{Chatha2003}{{14}{2003}{{Chatha}}{{}}}
\bibcite{chelkowski2016inequalities}{{15}{2016}{{Che{\l }kowski et~al.}}{{Che{\l }kowski, Gloor, and Jemielniak}}}
\bibcite{Cheng:2003:JUE:965660.965670}{{16}{2003}{{Cheng et~al.}}{{Cheng, Hupfer, Ross, and Patterson}}}
\bibcite{coelho2017modern}{{17}{2017}{{Coelho and Valente}}{{}}}
\bibcite{Cohen:1988}{{18}{1988}{{Cohen}}{{}}}
\bibcite{Conover:1998}{{19}{1998}{{Conover}}{{}}}
\bibcite{Cross2005}{{20}{2005}{{Cross et~al.}}{{Cross, Liedtka, and Weiss}}}
\bibcite{Crowston}{{21}{2006}{{Crowston and Howison}}{{}}}
\bibcite{Crowston2012}{{22}{2012}{{Crowston et~al.}}{{Crowston, Wei, Howison, and Wiggins}}}
\bibcite{PentaT17}{{23}{2017}{{{Di Penta} and Tamburri}}{{}}}
\bibcite{DiMaggio1983}{{24}{1983}{{DiMaggio and Powell}}{{}}}
\bibcite{druskat2016proposal}{{25}{2016}{{Druskat}}{{}}}
\bibcite{EggheR03}{{26}{2003}{{Egghe and Rousseau}}{{}}}
\bibcite{elkins2003leadership}{{27}{2003}{{Elkins and Keller}}{{}}}
\bibcite{GVK120821842}{{28}{1993}{{Espejo}}{{}}}
\bibcite{FalessiSS17}{{29}{2017}{{Falessi et~al.}}{{Falessi, Smith, and Serebrenik}}}
\bibcite{repcond}{{30}{1991}{{Fenton}}{{}}}
\bibcite{FerencHG14}{{31}{2014}{{Ferenc et~al.}}{{Ferenc, Heged{\"{u}}s, and Gyim{\'{o}}thy}}}
\bibcite{FordSGP16}{{32}{2016}{{Ford et~al.}}{{Ford, Smith, Guo, and Parnin}}}
\bibcite{Fredrickson:1986:amr}{{33}{1986}{{Fredrickson}}{{}}}
\bibcite{Hugo:journal}{{34}{2005}{{Fuks et~al.}}{{Fuks, Raposo, Gerosa, and de~Lucena}}}
\bibcite{situated}{{35}{2006}{{Gallagher}}{{}}}
\bibcite{gamalielsson2013sustainability}{{36}{2013}{{Gamalielsson and Lundell}}{{}}}
\bibcite{RePEc:wpa:wuwpio:0312005}{{37}{2003}{{Garzarelli and Galoppini}}{{}}}
\bibcite{GirardoCyber}{{38}{2016}{{Giraldo and Passino}}{{}}}
\bibcite{aletaref17}{{39}{2004}{{Glance}}{{}}}
\bibcite{Hata1}{{40}{2015}{{Hata et~al.}}{{Hata, Todo, Onoue, and Matsumoto}}}
\bibcite{Hintze}{{41}{1998}{{Hintze and Nelson}}{{}}}
\bibcite{hofstede2010cultures}{{42}{2010}{{Hofstede et~al.}}{{Hofstede, Hofstede, and Minkov}}}
\bibcite{homscheid:turnoverintention}{{43}{2016}{{Homscheid and Schaarschmidt}}{{}}}
\bibcite{HungTrans}{{44}{2010}{{Hung and Gatica-Perez}}{{}}}
\bibcite{Jansen14}{{45}{2014{a}}{{Jansen}}{{}}}
\bibcite{Jansen}{{46}{2014{b}}{{Jansen}}{{}}}
\bibcite{jeppesen2011attitudes}{{47}{2011}{{Jeppesen et~al.}}{{Jeppesen, J¯nsson, and Shevlin}}}
\bibcite{commflow}{{48}{2008}{{Jim{\'{e}}nez and Piattini}}{{}}}
\bibcite{Jongeling2017}{{49}{2017}{{Jongeling et~al.}}{{Jongeling, Sarkar, Datta, and Serebrenik}}}
\bibcite{KalliamvakouGBS16}{{50}{2016}{{Kalliamvakou et~al.}}{{Kalliamvakou, Gousios, Blincoe, Singer, German, and Damian}}}
\bibcite{MiningKeivanloo}{{51}{2012}{{Keivanloo et~al.}}{{Keivanloo, Forbes, Hmood, Erfani, Neal, Peristerakis, and Rilling}}}
\bibcite{sna}{{52}{2003}{{Kilduff and Tsai}}{{}}}
\bibcite{kim2007msa}{{53}{2007}{{Kim}}{{}}}
\bibcite{KozdobaM15}{{54}{2015}{{Kozdoba and Mannor}}{{}}}
\bibcite{kraut1995coordination}{{55}{1995}{{Kraut and Streeter}}{{}}}
\bibcite{krippendorff04}{{56}{2004}{{Krippendorff}}{{}}}
\bibcite{casoalexandra22}{{57}{2005}{{Kujala et~al.}}{{Kujala, Kauppinen, Lehtola, and Kojo}}}
\bibcite{LaiWC06}{{58}{2006}{{Lai et~al.}}{{Lai, Wong, and Cheng}}}
\bibcite{Lancichinetti2008}{{59}{2008}{{Lancichinetti et~al.}}{{Lancichinetti, Fortunato, and Kertesz}}}
\bibcite{geodisp}{{60}{2010}{{Li et~al.}}{{Li, Yang, and Yang}}}
\bibcite{LiTT12}{{61}{2012}{{Li et~al.}}{{Li, Tan, and Teo}}}
\bibcite{cacmqualcomm}{{62}{2017}{{Magnoni et~al.}}{{Magnoni, Tamburri, Di~Nitto, and Kazman}}}
\bibcite{manning1999fsn}{{63}{1999}{{Manning and Sch{\"u}tze}}{{}}}
\bibcite{Medus2005}{{64}{2005}{{Medus et~al.}}{{Medus, Acu{\~n}a, and Dorso}}}
\bibcite{Mendez:et:al}{{65}{2018}{{Mendez et~al.}}{{Mendez, Padala, Steine-Hanson, Hilderbrand, Horvath, Hill, Simpson, Patil, Sarma, and Burnett}}}
\bibcite{miles}{{66}{2015}{{Miles et~al.}}{{Miles, Gilmore, Harrigan, Lewis, and Sethna}}}
\bibcite{505276}{{67}{2002}{{Millen et~al.}}{{Millen, Fontaine, and Muller}}}
\bibcite{Mislove2007}{{68}{2007}{{Mislove et~al.}}{{Mislove, Marcon, Gummadi, Druschel, and Bhattacharjee}}}
\bibcite{Mockus2002}{{69}{2002}{{Mockus et~al.}}{{Mockus, Fielding, and Herbsleb}}}
\bibcite{Molzberger86}{{70}{1986}{{Molzberger}}{{}}}
\bibcite{MoodySR}{{71}{2003}{{Moody and White}}{{}}}
\bibcite{munaiah2017curating}{{72}{2017}{{Munaiah et~al.}}{{Munaiah, Kroh, Cabrey, and Nagappan}}}
\bibcite{cl}{{73}{2008}{{Nagappan et~al.}}{{Nagappan, Murphy, and Basili}}}
\bibcite{NevoW05}{{74}{2005}{{Nevo and Wand}}{{}}}
\bibcite{newman03fast}{{75}{2003}{{Newman}}{{}}}
\bibcite{newman2006modularity}{{76}{2006}{{Newman}}{{}}}
\bibcite{NewGir04}{{77}{2004}{{Newman and Girvan}}{{}}}
\bibcite{rel2}{{78}{2008}{{Nguyen et~al.}}{{Nguyen, Wolf, and Damian}}}
\bibcite{Nielsen95}{{79}{1995}{{Nielsen}}{{}}}
\bibcite{titans}{{80}{2013}{{di~Nitto et~al.}}{{di~Nitto, Gatti, Invernizzi, and Tamburri}}}
\bibcite{NooteboomCognitive}{{81}{2006}{{Nooteboom et~al.}}{{Nooteboom, Vanhaverbeke, Duysters, Gilsing, and van~den Oord}}}
\bibcite{Novielli:Calefato:Lanubile}{{82}{2014}{{Novielli et~al.}}{{Novielli, Calefato, and Lanubile}}}
\bibcite{onoue2014software}{{83}{2014}{{Onoue et~al.}}{{Onoue, Hata, and Matsumoto}}}
\bibcite{onoue2016investigating}{{84}{2016}{{Onoue et~al.}}{{Onoue, Hata, Monden, and Matsumoto}}}
\bibcite{Oreja-RodriguezY06}{{85}{2006}{{Oreja-Rodriguez and Yanes-Estevez}}{{}}}
\bibcite{sna2}{{86}{2002}{{Otte and Rousseau}}{{}}}
\bibcite{palomba2015mining}{{87}{2015}{{Palomba et~al.}}{{Palomba, Bavota, Di~Penta, Oliveto, Poshyvanyk, and De~Lucia}}}
\bibcite{palomba2017scent}{{88}{2017}{{Palomba et~al.}}{{Palomba, Panichella, Zaidman, Oliveto, and De~Lucia}}}
\bibcite{PalombaTSZFO18}{{89}{2018}{{Palomba et~al.}}{{Palomba, Tamburri, Serebrenik, Zaidman, Fontana, and Oliveto}}}
\bibcite{rel3}{{90}{2008}{{Pinzger et~al.}}{{Pinzger, Nagappan, and Murphy}}}
\bibcite{Prandy2000}{{91}{2000}{{Prandy}}{{}}}
\bibcite{Prattico}{{92}{2012}{{Prattico}}{{}}}
\bibcite{Prikladnicki12}{{93}{2012}{{Prikladnicki}}{{}}}
\bibcite{impact}{{94}{2007}{{Raju}}{{}}}
\bibcite{Grex:generations}{{95}{2009}{{Robles et~al.}}{{Robles, Gonzalez-Barahona, and Herraiz}}}
\bibcite{robles2011:floss_datamining}{{96}{2011}{{Robles et~al.}}{{Robles, Gonzalez-Barahona, Izquierdo-Cortazar, and Herraiz}}}
\bibcite{romano2006delta}{{97}{2006}{{Romano et~al.}}{{Romano, Kromrey, Skowronek, and Devine}}}
\bibcite{Ruikar2009}{{98}{2009}{{Ruikar et~al.}}{{Ruikar, Koskela, and Sexton}}}
\bibcite{Ryynanen12}{{99}{2012}{{Ryyn‰nen}}{{}}}
\bibcite{SadowskiSD08}{{100}{2008}{{Sadowski et~al.}}{{Sadowski, Sadowski-Rasters, and Duysters}}}
\bibcite{blogPost}{{101}{2018}{{Sands}}{{}}}
\bibcite{645}{{102}{2013}{{Schweik}}{{}}}
\bibcite{Severance12h}{{103}{2012}{{Severance}}{{}}}
\bibcite{SiakasG02}{{104}{2002}{{Siakas and Georgiadou}}{{}}}
\bibcite{silva2016we}{{105}{2016}{{Silva et~al.}}{{Silva, Tsantalis, and Valente}}}
\bibcite{steinmacher2015social}{{106}{2015}{{Steinmacher et~al.}}{{Steinmacher, Conte, Gerosa, and Redmiles}}}
\bibcite{stojanovic2011alert}{{107}{2011}{{Stojanovic et~al.}}{{Stojanovic, Ortega, Due{\~n}as, and Ca{\~n}as-D{\'\i }az}}}
\bibcite{edustudy}{{108}{2017}{{Tamburri and Casale}}{{}}}
\bibcite{icgseoss}{{109}{2012}{{Tamburri et~al.}}{{Tamburri, di~Nitto, Lago, and van Vliet}}}
\bibcite{ossslr}{{110}{2013{a}}{{Tamburri et~al.}}{{Tamburri, Lago, and van Vliet}}}
\bibcite{specissue}{{111}{2013{b}}{{Tamburri et~al.}}{{Tamburri, Lago, and van Vliet}}}
\bibcite{jisaspecissue}{{112}{2015}{{Tamburri et~al.}}{{Tamburri, Kruchten, Lago, and van Vliet}}}
\bibcite{archcomm}{{113}{2016}{{Tamburri et~al.}}{{Tamburri, Kazman, and Fahimi}}}
\bibcite{tsc:appendix}{{114}{2017}{{Tamburri et~al.}}{{Tamburri, Palomba, Serebrenik, and Zaidman}}}
\bibcite{Tikhonov2016Communitylevel}{{115}{2016}{{Tikhonov}}{{}}}
\bibcite{Tourani:saner2017}{{116}{2017}{{Tourani et~al.}}{{Tourani, Adams, and Serebrenik}}}
\bibcite{TraagKD13}{{117}{2013}{{Traag et~al.}}{{Traag, Krings, and Dooren}}}
\bibcite{fail1}{{118}{2009}{{Tsirakidis et~al.}}{{Tsirakidis, K\'{o}bler, and Krcmar}}}
\bibcite{TullioS14}{{119}{2014}{{Tullio and Staples}}{{}}}
\bibcite{VasilescuFS15}{{120}{2015{a}}{{Vasilescu et~al.}}{{Vasilescu, Filkov, and Serebrenik}}}
\bibcite{VasilescuPRBSDF15}{{121}{2015{b}}{{Vasilescu et~al.}}{{Vasilescu, Posnett, Ray, van~den Brand, Serebrenik, Devanbu, and Filkov}}}
\bibcite{Wenger1998}{{122}{1998}{{Wenger}}{{}}}
\bibcite{wohlin}{{123}{2000}{{Wohlin et~al.}}{{Wohlin, Runeson, H\"{o}st, Ohlsson, Regnell, and Wessl{\'e}n}}}
\bibcite{XiaoCK14}{{124}{2014}{{Xiao et~al.}}{{Xiao, Cai, and Kazman}}}
\bibcite{zhu_organizing_2012}{{125}{2012}{{Zhu et~al.}}{{Zhu, Kraut, and Kittur}}}
\bibcite{ZichKRS08}{{126}{2008}{{Zich et~al.}}{{Zich, Kohayakawa, R\"{o}dl, and Sunderam}}}
\bibcite{zimmermann2008overcoming}{{127}{2008}{{Zimmermann}}{{}}}
