\relax 
\citation{conway}
\citation{ossslr}
\citation{agileshift}
\@writefile{toc}{\contentsline {section}{\numberline {1}Introduction}{1}}
\citation{ossslr}
\citation{icgseoss}
\citation{nachiappan}
\citation{icgseoss}
\citation{socialsci1}
\citation{socialsci2}
\citation{situated}
\citation{socialsci2}
\citation{awarenessdef}
\citation{rel6}
\@writefile{lof}{\contentsline {figure}{\numberline {1}{\ignorespaces a decision-tree to uncover social communities}}{2}}
\newlabel{tree}{{1}{2}}
\@writefile{toc}{\contentsline {section}{\numberline {2}Related work: social communities in organisations}{2}}
\@writefile{toc}{\contentsline {section}{\numberline {3}Project Manager: what kind of community is that?}{2}}
\newlabel{coro}{{3}{2}}
\citation{sosoen}
\citation{ossslr}
\citation{socialsci2}
\citation{situated}
\citation{Ruikar2009}
\citation{Cross2005}
\citation{ossslr}
\citation{ossslr}
\citation{Ruikar2009}
\citation{ossslr}
\citation{Ruuska2003}
\citation{ErikAndriessen2005}
\citation{Cross2005}
\@writefile{toc}{\contentsline {section}{\numberline {4}Researcher: here's a decision-tree!}{3}}
\citation{ossslr}
\citation{situated}
\citation{situated}
\citation{ossslr}
\citation{situated}
\@writefile{lot}{\contentsline {table}{\numberline {1}{\ignorespaces social community types, an overview}}{4}}
\newlabel{types}{{1}{4}}
\citation{ossslr}
\citation{ossslr}
\citation{cc}
\citation{ossslr}
\citation{ossslr}
\citation{ossslr}
\citation{ossslr}
\citation{ossslr}
\citation{ossslr}
\citation{cristina}
\@writefile{toc}{\contentsline {section}{\numberline {5}A case study}{5}}
\citation{ossslr}
\citation{sitpract}
\@writefile{lof}{\contentsline {figure}{\numberline {2}{\ignorespaces community decision-tree, a case study}}{6}}
\newlabel{treecs}{{2}{6}}
\@writefile{toc}{\contentsline {section}{\numberline {6}There's good in studying the people of software}{6}}
\bibstyle{plain}
\bibdata{icsoc}
