\relax 
\citation{impact}
\citation{Crowston2012}
\citation{Crowston2012}
\citation{capra08}
\citation{vaporware}
\citation{fail1}
\citation{fail2}
\citation{icgseoss}
\citation{specissue}
\citation{ossslr}
\citation{repcond}
\@writefile{toc}{\contentsline {section}{\numberline {I}Introduction}{1}}
\@writefile{toc}{\contentsline {section}{\numberline {II}YOSHI In a Nutshell}{1}}
\newlabel{sol}{{II}{1}}
\@writefile{toc}{\contentsline {subsection}{\numberline {\unhbox \voidb@x \hbox {II-A}}Research Design}{1}}
\citation{ossslr}
\citation{ossslr}
\citation{specissue}
\citation{specissue}
\citation{icgseoss}
\citation{titans}
\citation{action}
\citation{specissue}
\citation{titans}
\citation{titans}
\citation{repcond}
\citation{titans}
\citation{specissue}
\citation{specissue}
\citation{ossslr}
\citation{situated}
\@writefile{toc}{\contentsline {subsection}{\numberline {\unhbox \voidb@x \hbox {II-B}}YOSHI's Theoretical Foundations}{2}}
\newlabel{theor}{{\unhbox \voidb@x \hbox {II-B}}{2}}
\@writefile{loa}{\contentsline {algorithm}{\numberline {1}{\ignorespaces YOSHI algorithmical representation of the decision-tree from \cite  {specissue}, thresholds from \cite  {titans} and the combination of which attributes determine which type are evident.}}{2}}
\newlabel{alto}{{1}{2}}
\citation{ossslr}
\citation{ossslr}
\citation{ossslr}
\citation{cc}
\citation{specissue}
\citation{titans}
\citation{CORG:CORG244}
\citation{specissue}
\citation{titans}
\@writefile{toc}{\contentsline {subsection}{\numberline {\unhbox \voidb@x \hbox {II-C}}YOSHI Architecture}{3}}
\@writefile{toc}{\contentsline {subsection}{\numberline {\unhbox \voidb@x \hbox {II-D}}How Does YOSHI Work?}{3}}
\newlabel{proc}{{\unhbox \voidb@x \hbox {II-D}}{3}}
\citation{sna}
\citation{geodisp}
\citation{hofstede2010cultures}
\@writefile{lof}{\contentsline {figure}{\numberline {1}{\ignorespaces YOSHI high-level architecture.}}{4}}
\newlabel{yoshiarch}{{1}{4}}
\@writefile{lof}{\contentsline {figure}{\numberline {2}{\ignorespaces A geographical distribution map in YOSHI.}}{4}}
\newlabel{geodisp}{{2}{4}}
\citation{casoalexandra22}
\citation{Crowston2012}
\citation{aletaref17}
\citation{ossslr}
\citation{aletaref19}
\citation{icgseoss}
\citation{specissue}
\citation{specissue}
\citation{ossslr}
\citation{repcond}
\citation{repcond}
\citation{repcond}
\citation{repcond}
\citation{geodisp}
\@writefile{toc}{\contentsline {section}{\numberline {III}Evaluation}{6}}
\newlabel{cs}{{III}{6}}
\@writefile{toc}{\contentsline {subsection}{\numberline {\unhbox \voidb@x \hbox {III-A}}Experimental Setup}{6}}
\@writefile{toc}{\contentsline {subsection}{\numberline {\unhbox \voidb@x \hbox {III-B}}Evaluating YOSHI As a Valid Community Measurement and Typing Tool}{6}}
\citation{aletaref24}
\@writefile{lof}{\contentsline {figure}{\numberline {3}{\ignorespaces A geographical distribution map for the Dotcloud project.}}{7}}
\newlabel{geodisp1}{{3}{7}}
\@writefile{lof}{\contentsline {figure}{\numberline {4}{\ignorespaces A geographical distribution map for the Twitter Bootstrap Project, the representation condition holds.}}{7}}
\newlabel{geodisp2}{{4}{7}}
\@writefile{toc}{\contentsline {subsection}{\numberline {\unhbox \voidb@x \hbox {III-C}}Evaluating YOSHI As a Research Assistant}{7}}
\citation{ossslr}
\citation{fn}
\citation{cops}
\citation{vaporware}
\citation{ossslr}
\citation{ossslr}
\citation{nachiappan}
\citation{bird}
\citation{awarenessdef}
\citation{congruence}
\citation{beyond}
\@writefile{lof}{\contentsline {figure}{\numberline {5}{\ignorespaces Reopen-issue rates (Y-Axis) at the increase of geodispersion (X-Axis), cross-referenced with community types (different color bar-charts).}}{8}}
\newlabel{reopen}{{5}{8}}
\@writefile{toc}{\contentsline {subsection}{\numberline {\unhbox \voidb@x \hbox {III-D}}Evaluating YOSHI as a Governance Support Mechanism}{8}}
\@writefile{toc}{\contentsline {section}{\numberline {IV}Discussion and Limitations}{8}}
\newlabel{disc}{{IV}{8}}
\citation{titans}
\citation{wohlin}
\citation{ossslr}
\citation{titans}
\citation{RePEc:wpa:wuwpio:0312005}
\citation{RePEc:wpa:wuwpio:0312005}
\@writefile{toc}{\contentsline {subsection}{\numberline {\unhbox \voidb@x \hbox {IV-A}}YOSHI's Limitations}{9}}
\@writefile{toc}{\contentsline {section}{\numberline {V}Related Work}{9}}
\newlabel{rel}{{V}{9}}
\@writefile{toc}{\contentsline {subsection}{\numberline {\unhbox \voidb@x \hbox {V-A}}Governance and Community Aspects in Open-Source}{9}}
\citation{Prattico}
\citation{Cheng:2003:JUE:965660.965670}
\citation{robles2011:floss_datamining}
\citation{MiningKeivanloo}
\citation{stojanovic2011alert}
\citation{specissue}
\citation{ossslr}
\bibstyle{IEEEtran}
\bibdata{yoshi}
\bibcite{impact}{1}
\bibcite{Crowston2012}{2}
\@writefile{toc}{\contentsline {subsection}{\numberline {\unhbox \voidb@x \hbox {V-B}}Computer-Assisted Support for Open-Source}{10}}
\@writefile{toc}{\contentsline {section}{\numberline {VI}Conclusion}{10}}
\newlabel{conc}{{VI}{10}}
\@writefile{toc}{\contentsline {section}{References}{10}}
\bibcite{capra08}{3}
\bibcite{vaporware}{4}
\bibcite{fail1}{5}
\bibcite{fail2}{6}
\bibcite{icgseoss}{7}
\bibcite{specissue}{8}
\bibcite{ossslr}{9}
\bibcite{repcond}{10}
\bibcite{titans}{11}
\bibcite{action}{12}
\bibcite{situated}{13}
\bibcite{cc}{14}
\bibcite{CORG:CORG244}{15}
\bibcite{sna}{16}
\bibcite{geodisp}{17}
\bibcite{hofstede2010cultures}{18}
\bibcite{casoalexandra22}{19}
\bibcite{aletaref17}{20}
\bibcite{aletaref19}{21}
\bibcite{aletaref24}{22}
\bibcite{fn}{23}
\bibcite{cops}{24}
\bibcite{nachiappan}{25}
\bibcite{bird}{26}
\bibcite{awarenessdef}{27}
\bibcite{congruence}{28}
\bibcite{beyond}{29}
\bibcite{wohlin}{30}
\bibcite{RePEc:wpa:wuwpio:0312005}{31}
\bibcite{Prattico}{32}
\bibcite{Cheng:2003:JUE:965660.965670}{33}
\bibcite{robles2011:floss_datamining}{34}
\bibcite{MiningKeivanloo}{35}
\bibcite{stojanovic2011alert}{36}
