\relax 
\citation{conway}
\citation{ossslr}
\citation{agileshift}
\@writefile{toc}{\contentsline {section}{\numberline {1}Introduction}{1}}
\citation{ossslr}
\citation{icgseoss}
\citation{nachiappan}
\citation{icgseoss}
\citation{socialsci1}
\citation{socialsci2}
\citation{situated}
\citation{socialsci2}
\citation{awarenessdef}
\citation{rel6}
\citation{sosoen}
\@writefile{lof}{\contentsline {figure}{\numberline {1}{\ignorespaces a decision-tree to uncover social communities}}{2}}
\newlabel{tree}{{1}{2}}
\@writefile{toc}{\contentsline {section}{\numberline {2}Related work: social communities in organisations}{2}}
\@writefile{toc}{\contentsline {section}{\numberline {3}Project Manager: what kind of community is that?}{2}}
\newlabel{coro}{{3}{2}}
\citation{ossslr}
\citation{socialsci2}
\citation{situated}
\citation{Ruikar2009}
\citation{Cross2005}
\citation{ossslr}
\citation{ossslr}
\citation{Ruikar2009}
\citation{ossslr}
\citation{Ruuska2003}
\citation{ErikAndriessen2005}
\citation{Cross2005}
\citation{ossslr}
\citation{situated}
\citation{situated}
\@writefile{toc}{\contentsline {section}{\numberline {4}Researcher: here's a decision-tree!}{3}}
\citation{ossslr}
\citation{situated}
\citation{ossslr}
\@writefile{lot}{\contentsline {table}{\numberline {1}{\ignorespaces social community types, an overview}}{4}}
\newlabel{types}{{1}{4}}
\citation{ossslr}
\citation{cc}
\citation{ossslr}
\citation{ossslr}
\citation{ossslr}
\citation{ossslr}
\citation{ossslr}
\citation{ossslr}
\citation{cristina}
\@writefile{toc}{\contentsline {section}{\numberline {5}A case study}{5}}
\@writefile{lof}{\contentsline {figure}{\numberline {2}{\ignorespaces community decision-tree, a case study}}{6}}
\newlabel{treecs}{{2}{6}}
\citation{ossslr}
\citation{sitpract}
\bibstyle{plain}
\bibdata{icsoc}
\bibcite{ErikAndriessen2005}{1}
\bibcite{rel6}{2}
\bibcite{conway}{3}
\bibcite{Cross2005}{4}
\bibcite{awarenessdef}{5}
\bibcite{situated}{6}
\bibcite{cc}{7}
\bibcite{sosoen}{8}
\bibcite{agileshift}{9}
\bibcite{nachiappan}{10}
\bibcite{cristina}{11}
\bibcite{socialsci1}{12}
\bibcite{Ruikar2009}{13}
\bibcite{Ruuska2003}{14}
\bibcite{sitpract}{15}
\bibcite{icgseoss}{16}
\bibcite{ossslr}{17}
\bibcite{socialsci2}{18}
\@writefile{toc}{\contentsline {section}{\numberline {6}There's good in studying the people of software}{7}}
\@writefile{toc}{\contentsline {section}{References}{7}}
